{
  "DependencyMap": {
	"noffz-utp-io-core-lv14-x86": {
      "Dependencies": {
        "Depends": [
          [
            {
              "PackageName": "noffz-utp-io-datastorage-lv14-x86",
              "Version": "3.12.0",
              "Relationship": 3
            }
          ]
        ],
        "Conflicts": [
          []
        ]
      }
    },
	"noffz-utp-io-core-lv15-x86": {
      "Dependencies": {
        "Depends": [
          [
            {
              "PackageName": "noffz-utp-io-datastorage-lv14-x86",
              "Version": "3.12.0",
              "Relationship": 3
            }
          ]
        ],
        "Conflicts": [
          []
        ]
      }
    },
	"noffz-utp-io-core-lv16-x86": {
      "Dependencies": {
        "Depends": [
          []
        ],
        "Conflicts": [
          []
        ]
      }
    },
	"noffz-utp-io-core-lv16-x64": {
      "Dependencies": {
        "Depends": [
          [
            {
              "PackageName": "noffz-utp-io-datastorage-lv14-x86",
              "Version": "3.12.0",
              "Relationship": 3
            }
          ]
        ],
        "Conflicts": [
          []
        ]
      }
    },
	"noffz-utp-io-core-lv17-x86": {
      "Dependencies": {
        "Depends": [
          [
            {
              "PackageName": "noffz-utp-io-datastorage-lv14-x86",
              "Version": "3.12.0",
              "Relationship": 3
            }
          ]
        ],
        "Conflicts": [
          []
        ]
      }
    },
	"noffz-utp-io-core-lv17-x64": {
      "Dependencies": {
        "Depends": [
          [
            {
              "PackageName": "noffz-utp-io-datastorage-lv14-x86",
              "Version": "3.12.0",
              "Relationship": 3
            }
          ]
        ],
        "Conflicts": [
          []
        ]
      }
    },
	"noffz-utp-io-core-lv18-x86": {
      "Dependencies": {
        "Depends": [
          [
            {
              "PackageName": "noffz-utp-io-datastorage-lv14-x86",
              "Version": "3.12.0",
              "Relationship": 3
            }
          ]
        ],
        "Conflicts": [
          []
        ]
      }
    },
	"noffz-utp-io-core-lv18-x64": {
      "Dependencies": {
        "Depends": [
          [
            {
              "PackageName": "noffz-utp-io-datastorage-lv14-x86",
              "Version": "3.12.0",
              "Relationship": 3
            }
          ]
        ],
        "Conflicts": [
          []
        ]
      }
    },
    "noffz-utp-io-configurator-lv14-x86": {
      "Dependencies": {
        "Depends": [
          [
            {
              "PackageName": "noffz-utp-io-core-lv14-x86",
              "Version": "3.12.0",
              "Relationship": 3
            }
          ],
          [
            {
              "PackageName": "noffz-utp-io-plugin-noffzgeneric-lv14-x86",
              "Version": "3.12.0",
              "Relationship": 3
            }
          ]
        ],
        "Conflicts": [
          [
          ]
        ]
      }
    },
    "noffz-utp-io-datastorage-lv14-x86": {
      "Dependencies": {
        "Depends": [
          [
            {
              "PackageName": "noffz-utp-io-core-lv14-x86",
              "Version": "3.12.0",
              "Relationship": 3
            }
          ]
        ],
        "Conflicts": [
          [
          ]
        ]
      }
    },
    "noffz-utp-io-viewer-lv14-x86": {
      "Dependencies": {
        "Depends": [
          [
            {
              "PackageName": "noffz-utp-io-core-lv14-x86",
              "Version": "3.12.0",
              "Relationship": 3
            }
          ],
          [
            {
              "PackageName": "noffz-utp-io-datastorage-lv14-x86",
              "Version": "3.12.0",
              "Relationship": 3
            }
          ]
        ],
        "Conflicts": [
          [
          ]
        ]
      }
    },
    "noffz-utp-io-library-labview-lv14-x86": {
      "Dependencies": {
        "Depends": [
          [
            {
              "PackageName": "noffz-utp-io-core-lv14-x86",
              "Version": "3.12.0",
              "Relationship": 3
            }
          ],
		  [
            {
              "PackageName": "noffz-utp-esf-lv14-x86",
              "Version": "1.2.0",
              "Relationship": 2
            }
          ]
        ],
        "Conflicts": [
          [
          ]
        ]
      }
    },
	"noffz-utp-io-library-labview-lv15-x86": {
      "Dependencies": {
        "Depends": [
          [
            {
              "PackageName": "noffz-utp-io-core-lv14-x86",
              "Version": "3.12.0",
              "Relationship": 3
            }
          ],
		  [
            {
              "PackageName": "noffz-utp-esf-lv15-x86",
              "Version": "1.2.0",
              "Relationship": 2
            }
          ]
        ],
        "Conflicts": [
          [
          ]
        ]
      }
    },
	"noffz-utp-io-library-labview-lv16-x86": {
      "Dependencies": {
        "Depends": [
          [
            {
              "PackageName": "noffz-utp-io-core-lv16-x86",
              "Version": "3.12.0",
              "Relationship": 3
            }
          ],
		  [
            {
              "PackageName": "noffz-utp-esf-lv16-x86",
              "Version": "1.2.0",
              "Relationship": 2
            }
          ]
        ],
        "Conflicts": [
          [
          ]
        ]
      }
    },
	"noffz-utp-io-library-labview-lv16-x64": {
      "Dependencies": {
        "Depends": [
          [
            {
              "PackageName": "noffz-utp-io-core-lv16-x64",
              "Version": "3.12.0",
              "Relationship": 3
            }
          ],
		  [
            {
              "PackageName": "noffz-utp-esf-lv16-x64",
              "Version": "1.2.0",
              "Relationship": 2
            }
          ]
        ],
        "Conflicts": [
          [
          ]
        ]
      }
    },
	"noffz-utp-io-library-labview-lv17-x86": {
      "Dependencies": {
        "Depends": [
          [
            {
              "PackageName": "noffz-utp-io-core-lv17-x86",
              "Version": "3.12.0",
              "Relationship": 3
            }
          ],
		  [
            {
              "PackageName": "noffz-utp-esf-lv17-x86",
              "Version": "1.2.0",
              "Relationship": 2
            }
          ]
        ],
        "Conflicts": [
          [
          ]
        ]
      }
    },
	"noffz-utp-io-library-labview-lv17-x64": {
      "Dependencies": {
        "Depends": [
          [
            {
              "PackageName": "noffz-utp-io-core-lv17-x64",
              "Version": "3.12.0",
              "Relationship": 3
            }
          ],
		  [
            {
              "PackageName": "noffz-utp-esf-lv17-x64",
              "Version": "1.2.0",
              "Relationship": 2
            }
          ]
        ],
        "Conflicts": [
          [
          ]
        ]
      }
    },
	"noffz-utp-io-library-labview-lv18-x86": {
      "Dependencies": {
        "Depends": [
          [
            {
              "PackageName": "noffz-utp-io-core-lv18-x86",
              "Version": "3.12.0",
              "Relationship": 3
            }
          ],
		  [
            {
              "PackageName": "noffz-utp-esf-lv18-x86",
              "Version": "1.2.0",
              "Relationship": 2
            }
          ]
        ],
        "Conflicts": [
          [
          ]
        ]
      }
    },
	"noffz-utp-io-library-labview-lv18-x64": {
      "Dependencies": {
        "Depends": [
          [
            {
              "PackageName": "noffz-utp-io-core-lv18-x64",
              "Version": "3.12.0",
              "Relationship": 3
            }
          ],
		  [
            {
              "PackageName": "noffz-utp-esf-lv18-x64",
              "Version": "1.2.0",
              "Relationship": 2
            }
          ]
        ],
        "Conflicts": [
          [
          ]
        ]
      }
    },
	"noffz-utp-io-library-teststand-ts10sp1-x86": {
      "Dependencies": {
        "Suggests": [
          [
            {
              "PackageName": "noffz-utp-io-library-labview-lv14-x86",
              "Version": "3.12.0",
              "Relationship": 3
            },
			{
              "PackageName": "noffz-utp-io-library-labview-lv15-x86",
              "Version": "3.12.0",
              "Relationship": 3
            },
			{
              "PackageName": "noffz-utp-io-library-labview-lv16-x86",
              "Version": "3.12.0",
              "Relationship": 3
            },
			{
              "PackageName": "noffz-utp-io-library-labview-lv16-x64",
              "Version": "3.12.0",
              "Relationship": 3
            },
			{
              "PackageName": "noffz-utp-io-library-labview-lv17-x86",
              "Version": "3.12.0",
              "Relationship": 3
            },
			{
              "PackageName": "noffz-utp-io-library-labview-lv17-x64",
              "Version": "3.12.0",
              "Relationship": 3
            },
			{
              "PackageName": "noffz-utp-io-library-labview-lv18-x86",
              "Version": "3.12.0",
              "Relationship": 3
            },
			{
              "PackageName": "noffz-utp-io-library-labview-lv18-x64",
              "Version": "3.12.0",
              "Relationship": 3
            }
          ]
        ],
        "Conflicts": [
          [
          ]
        ]
      }
    },
	"noffz-utp-io-library-teststand-ts12-x86": {
      "Dependencies": {
        "Suggests": [
          [
            {
              "PackageName": "noffz-utp-io-library-labview-lv14-x86",
              "Version": "3.12.0",
              "Relationship": 3
            },
			{
              "PackageName": "noffz-utp-io-library-labview-lv15-x86",
              "Version": "3.12.0",
              "Relationship": 3
            },
			{
              "PackageName": "noffz-utp-io-library-labview-lv16-x86",
              "Version": "3.12.0",
              "Relationship": 3
            },
			{
              "PackageName": "noffz-utp-io-library-labview-lv16-x64",
              "Version": "3.12.0",
              "Relationship": 3
            },
			{
              "PackageName": "noffz-utp-io-library-labview-lv17-x86",
              "Version": "3.12.0",
              "Relationship": 3
            },
			{
              "PackageName": "noffz-utp-io-library-labview-lv17-x64",
              "Version": "3.12.0",
              "Relationship": 3
            },
			{
              "PackageName": "noffz-utp-io-library-labview-lv18-x86",
              "Version": "3.12.0",
              "Relationship": 3
            },
			{
              "PackageName": "noffz-utp-io-library-labview-lv18-x64",
              "Version": "3.12.0",
              "Relationship": 3
            }
          ]
        ],
        "Conflicts": [
          [
          ]
        ]
      }
    },
	"noffz-utp-io-library-teststand-ts14-x86": {
      "Dependencies": {
        "Suggests": [
          [
            {
              "PackageName": "noffz-utp-io-library-labview-lv14-x86",
              "Version": "3.12.0",
              "Relationship": 3
            },
			{
              "PackageName": "noffz-utp-io-library-labview-lv15-x86",
              "Version": "3.12.0",
              "Relationship": 3
            },
			{
              "PackageName": "noffz-utp-io-library-labview-lv16-x86",
              "Version": "3.12.0",
              "Relationship": 3
            },
			{
              "PackageName": "noffz-utp-io-library-labview-lv16-x64",
              "Version": "3.12.0",
              "Relationship": 3
            },
			{
              "PackageName": "noffz-utp-io-library-labview-lv17-x86",
              "Version": "3.12.0",
              "Relationship": 3
            },
			{
              "PackageName": "noffz-utp-io-library-labview-lv17-x64",
              "Version": "3.12.0",
              "Relationship": 3
            },
			{
              "PackageName": "noffz-utp-io-library-labview-lv18-x86",
              "Version": "3.12.0",
              "Relationship": 3
            },
			{
              "PackageName": "noffz-utp-io-library-labview-lv18-x64",
              "Version": "3.12.0",
              "Relationship": 3
            }
          ]
        ],
        "Conflicts": [
          [
          ]
        ]
      }
    },
	"noffz-utp-io-library-teststand-ts14-x64": {
      "Dependencies": {
        "Suggests": [
          [
            {
              "PackageName": "noffz-utp-io-library-labview-lv14-x86",
              "Version": "3.12.0",
              "Relationship": 3
            },
			{
              "PackageName": "noffz-utp-io-library-labview-lv15-x86",
              "Version": "3.12.0",
              "Relationship": 3
            },
			{
              "PackageName": "noffz-utp-io-library-labview-lv16-x86",
              "Version": "3.12.0",
              "Relationship": 3
            },
			{
              "PackageName": "noffz-utp-io-library-labview-lv16-x64",
              "Version": "3.12.0",
              "Relationship": 3
            },
			{
              "PackageName": "noffz-utp-io-library-labview-lv17-x86",
              "Version": "3.12.0",
              "Relationship": 3
            },
			{
              "PackageName": "noffz-utp-io-library-labview-lv17-x64",
              "Version": "3.12.0",
              "Relationship": 3
            },
			{
              "PackageName": "noffz-utp-io-library-labview-lv18-x86",
              "Version": "3.12.0",
              "Relationship": 3
            },
			{
              "PackageName": "noffz-utp-io-library-labview-lv18-x64",
              "Version": "3.12.0",
              "Relationship": 3
            }
          ]
        ],
        "Conflicts": [
          [
          ]
        ]
      }
    },
	"noffz-utp-io-library-teststand-ts16-x86": {
      "Dependencies": {
        "Suggests": [
          [
            {
              "PackageName": "noffz-utp-io-library-labview-lv14-x86",
              "Version": "3.12.0",
              "Relationship": 3
            },
			{
              "PackageName": "noffz-utp-io-library-labview-lv15-x86",
              "Version": "3.12.0",
              "Relationship": 3
            },
			{
              "PackageName": "noffz-utp-io-library-labview-lv16-x86",
              "Version": "3.12.0",
              "Relationship": 3
            },
			{
              "PackageName": "noffz-utp-io-library-labview-lv16-x64",
              "Version": "3.12.0",
              "Relationship": 3
            },
			{
              "PackageName": "noffz-utp-io-library-labview-lv17-x86",
              "Version": "3.12.0",
              "Relationship": 3
            },
			{
              "PackageName": "noffz-utp-io-library-labview-lv17-x64",
              "Version": "3.12.0",
              "Relationship": 3
            },
			{
              "PackageName": "noffz-utp-io-library-labview-lv18-x86",
              "Version": "3.12.0",
              "Relationship": 3
            },
			{
              "PackageName": "noffz-utp-io-library-labview-lv18-x64",
              "Version": "3.12.0",
              "Relationship": 3
            }
          ]
        ],
        "Conflicts": [
          [
          ]
        ]
      }
    },
	"noffz-utp-io-library-teststand-ts16-x64": {
      "Dependencies": {
        "Suggests": [
          [
            {
              "PackageName": "noffz-utp-io-library-labview-lv14-x86",
              "Version": "3.12.0",
              "Relationship": 3
            },
			{
              "PackageName": "noffz-utp-io-library-labview-lv15-x86",
              "Version": "3.12.0",
              "Relationship": 3
            },
			{
              "PackageName": "noffz-utp-io-library-labview-lv16-x86",
              "Version": "3.12.0",
              "Relationship": 3
            },
			{
              "PackageName": "noffz-utp-io-library-labview-lv16-x64",
              "Version": "3.12.0",
              "Relationship": 3
            },
			{
              "PackageName": "noffz-utp-io-library-labview-lv17-x86",
              "Version": "3.12.0",
              "Relationship": 3
            },
			{
              "PackageName": "noffz-utp-io-library-labview-lv17-x64",
              "Version": "3.12.0",
              "Relationship": 3
            },
			{
              "PackageName": "noffz-utp-io-library-labview-lv18-x86",
              "Version": "3.12.0",
              "Relationship": 3
            },
			{
              "PackageName": "noffz-utp-io-library-labview-lv18-x64",
              "Version": "3.12.0",
              "Relationship": 3
            }
          ]
        ],
        "Conflicts": [
          [
          ]
        ]
      }
    },
	"noffz-utp-io-library-teststand-lv17-x86": {
      "Dependencies": {
        "Suggests": [
          [
            {
              "PackageName": "noffz-utp-io-library-labview-lv14-x86",
              "Version": "3.12.0",
              "Relationship": 3
            },
			{
              "PackageName": "noffz-utp-io-library-labview-lv15-x86",
              "Version": "3.12.0",
              "Relationship": 3
            },
			{
              "PackageName": "noffz-utp-io-library-labview-lv16-x86",
              "Version": "3.12.0",
              "Relationship": 3
            },
			{
              "PackageName": "noffz-utp-io-library-labview-lv16-x64",
              "Version": "3.12.0",
              "Relationship": 3
            },
			{
              "PackageName": "noffz-utp-io-library-labview-lv17-x86",
              "Version": "3.12.0",
              "Relationship": 3
            },
			{
              "PackageName": "noffz-utp-io-library-labview-lv17-x64",
              "Version": "3.12.0",
              "Relationship": 3
            },
			{
              "PackageName": "noffz-utp-io-library-labview-lv18-x86",
              "Version": "3.12.0",
              "Relationship": 3
            },
			{
              "PackageName": "noffz-utp-io-library-labview-lv18-x64",
              "Version": "3.12.0",
              "Relationship": 3
            }
          ]
        ],
        "Conflicts": [
          [
          ]
        ]
      }
    },
	"noffz-utp-io-library-teststand-ts17-x64": {
      "Dependencies": {
        "Suggests": [
          [
            {
              "PackageName": "noffz-utp-io-library-labview-lv14-x86",
              "Version": "3.12.0",
              "Relationship": 3
            },
			{
              "PackageName": "noffz-utp-io-library-labview-lv15-x86",
              "Version": "3.12.0",
              "Relationship": 3
            },
			{
              "PackageName": "noffz-utp-io-library-labview-lv16-x86",
              "Version": "3.12.0",
              "Relationship": 3
            },
			{
              "PackageName": "noffz-utp-io-library-labview-lv16-x64",
              "Version": "3.12.0",
              "Relationship": 3
            },
			{
              "PackageName": "noffz-utp-io-library-labview-lv17-x86",
              "Version": "3.12.0",
              "Relationship": 3
            },
			{
              "PackageName": "noffz-utp-io-library-labview-lv17-x64",
              "Version": "3.12.0",
              "Relationship": 3
            },
			{
              "PackageName": "noffz-utp-io-library-labview-lv18-x86",
              "Version": "3.12.0",
              "Relationship": 3
            },
			{
              "PackageName": "noffz-utp-io-library-labview-lv18-x64",
              "Version": "3.12.0",
              "Relationship": 3
            }
          ]
        ],
        "Conflicts": [
          [
          ]
        ]
      }
    },
	
    "noffz-utp-io-plugin-beckerchassis-lv14-x86": {
      "Dependencies": {
        "Depends": [
          [
            {
              "PackageName": "noffz-utp-io-core-lv14-x86",
              "Version": "3.12.0",
              "Relationship": 3
            }
          ]
        ],
        "Conflicts": [
          [
          ]
        ]
      }
    },
    "noffz-utp-io-plugin-beckerchassis-lv15-x86": {
      "Dependencies": {
        "Depends": [
          [
            {
              "PackageName": "noffz-utp-io-core-lv15-x86",
              "Version": "3.12.0",
              "Relationship": 3
            }
          ]
        ],
        "Conflicts": [
          [
          ]
        ]
      }
    },
    "noffz-utp-io-plugin-beckerchassis-lv16-x86": {
      "Dependencies": {
        "Depends": [
          [
            {
              "PackageName": "noffz-utp-io-core-lv16-x86",
              "Version": "3.12.0",
              "Relationship": 3
            }
          ]
        ],
        "Conflicts": [
          [
          ]
        ]
      }
    },
    "noffz-utp-io-plugin-beckerchassis-lv16-x64": {
      "Dependencies": {
        "Depends": [
          [
            {
              "PackageName": "noffz-utp-io-core-lv16-x64",
              "Version": "3.12.0",
              "Relationship": 3
            }
          ]
        ],
        "Conflicts": [
          [
          ]
        ]
      }
    },
    "noffz-utp-io-plugin-beckerchassis-lv17-x86": {
      "Dependencies": {
        "Depends": [
          [
            {
              "PackageName": "noffz-utp-io-core-lv17-x86",
              "Version": "3.12.0",
              "Relationship": 3
            }
          ]
        ],
        "Conflicts": [
          [
          ]
        ]
      }
    },
    "noffz-utp-io-plugin-beckerchassis-lv17-x64": {
      "Dependencies": {
        "Depends": [
          [
            {
              "PackageName": "noffz-utp-io-core-lv17-x64",
              "Version": "3.12.0",
              "Relationship": 3
            }
          ]
        ],
        "Conflicts": [
          [
          ]
        ]
      }
    },
    "noffz-utp-io-plugin-beckerchassis-lv18-x86": {
      "Dependencies": {
        "Depends": [
          [
            {
              "PackageName": "noffz-utp-io-core-lv18-x86",
              "Version": "3.12.0",
              "Relationship": 3
            }
          ]
        ],
        "Conflicts": [
          [
          ]
        ]
      }
    },
    "noffz-utp-io-plugin-beckerchassis-lv18-x64": {
      "Dependencies": {
        "Depends": [
          [
            {
              "PackageName": "noffz-utp-io-core-lv18-x64",
              "Version": "3.12.0",
              "Relationship": 3
            }
          ]
        ],
        "Conflicts": [
          [
          ]
        ]
      }
    },



    "noffz-utp-io-plugin-beckhofftwincat3-lv14-x86": {
      "Dependencies": {
        "Depends": [
          [
            {
              "PackageName": "noffz-utp-io-core-lv14-x86",
              "Version": "3.12.0",
              "Relationship": 3
            }
          ]
        ],
        "Conflicts": [
          [
          ]
        ]
      }
    },
    "noffz-utp-io-plugin-beckhofftwincat3-lv15-x86": {
      "Dependencies": {
        "Depends": [
          [
            {
              "PackageName": "noffz-utp-io-core-lv15-x86",
              "Version": "3.12.0",
              "Relationship": 3
            }
          ]
        ],
        "Conflicts": [
          [
          ]
        ]
      }
    },
    "noffz-utp-io-plugin-beckhofftwincat3-lv16-x86": {
      "Dependencies": {
        "Depends": [
          [
            {
              "PackageName": "noffz-utp-io-core-lv16-x86",
              "Version": "3.12.0",
              "Relationship": 3
            }
          ]
        ],
        "Conflicts": [
          [
          ]
        ]
      }
    },
    "noffz-utp-io-plugin-beckhofftwincat3-lv16-x64": {
      "Dependencies": {
        "Depends": [
          [
            {
              "PackageName": "noffz-utp-io-core-lv16-x64",
              "Version": "3.12.0",
              "Relationship": 3
            }
          ]
        ],
        "Conflicts": [
          [
          ]
        ]
      }
    },
    "noffz-utp-io-plugin-beckhofftwincat3-lv17-x86": {
      "Dependencies": {
        "Depends": [
          [
            {
              "PackageName": "noffz-utp-io-core-lv17-x86",
              "Version": "3.12.0",
              "Relationship": 3
            }
          ]
        ],
        "Conflicts": [
          [
          ]
        ]
      }
    },
    "noffz-utp-io-plugin-beckhofftwincat3-lv17-x64": {
      "Dependencies": {
        "Depends": [
          [
            {
              "PackageName": "noffz-utp-io-core-lv17-x64",
              "Version": "3.12.0",
              "Relationship": 3
            }
          ]
        ],
        "Conflicts": [
          [
          ]
        ]
      }
    },
    "noffz-utp-io-plugin-beckhofftwincat3-lv18-x86": {
      "Dependencies": {
        "Depends": [
          [
            {
              "PackageName": "noffz-utp-io-core-lv18-x86",
              "Version": "3.12.0",
              "Relationship": 3
            }
          ]
        ],
        "Conflicts": [
          [
          ]
        ]
      }
    },
    "noffz-utp-io-plugin-beckhofftwincat3-lv18-x64": {
      "Dependencies": {
        "Depends": [
          [
            {
              "PackageName": "noffz-utp-io-core-lv18-x64",
              "Version": "3.12.0",
              "Relationship": 3
            }
          ]
        ],
        "Conflicts": [
          [
          ]
        ]
      }
    },
	
	
    "noffz-utp-io-plugin-chromaacpowersource-lv14-x86": {
      "Dependencies": {
        "Depends": [
          [
            {
              "PackageName": "noffz-utp-io-core-lv14-x86",
              "Version": "3.12.0",
              "Relationship": 3
            }
          ]
        ],
        "Conflicts": [
          [
          ]
        ]
      }
    },
    "noffz-utp-io-plugin-chromaacpowersource-lv15-x86": {
      "Dependencies": {
        "Depends": [
          [
            {
              "PackageName": "noffz-utp-io-core-lv15-x86",
              "Version": "3.12.0",
              "Relationship": 3
            }
          ]
        ],
        "Conflicts": [
          [
          ]
        ]
      }
    },
    "noffz-utp-io-plugin-chromaacpowersource-lv16-x86": {
      "Dependencies": {
        "Depends": [
          [
            {
              "PackageName": "noffz-utp-io-core-lv16-x86",
              "Version": "3.12.0",
              "Relationship": 3
            }
          ]
        ],
        "Conflicts": [
          [
          ]
        ]
      }
    },
    "noffz-utp-io-plugin-chromaacpowersource-lv16-x64": {
      "Dependencies": {
        "Depends": [
          [
            {
              "PackageName": "noffz-utp-io-core-lv16-x64",
              "Version": "3.12.0",
              "Relationship": 3
            }
          ]
        ],
        "Conflicts": [
          [
          ]
        ]
      }
    },
    "noffz-utp-io-plugin-chromaacpowersource-lv17-x86": {
      "Dependencies": {
        "Depends": [
          [
            {
              "PackageName": "noffz-utp-io-core-lv17-x86",
              "Version": "3.12.0",
              "Relationship": 3
            }
          ]
        ],
        "Conflicts": [
          [
          ]
        ]
      }
    },
    "noffz-utp-io-plugin-chromaacpowersource-lv17-x64": {
      "Dependencies": {
        "Depends": [
          [
            {
              "PackageName": "noffz-utp-io-core-lv17-x64",
              "Version": "3.12.0",
              "Relationship": 3
            }
          ]
        ],
        "Conflicts": [
          [
          ]
        ]
      }
    },
    "noffz-utp-io-plugin-chromaacpowersource-lv18-x86": {
      "Dependencies": {
        "Depends": [
          [
            {
              "PackageName": "noffz-utp-io-core-lv18-x86",
              "Version": "3.12.0",
              "Relationship": 3
            }
          ]
        ],
        "Conflicts": [
          [
          ]
        ]
      }
    },
    "noffz-utp-io-plugin-chromaacpowersource-lv18-x64": {
      "Dependencies": {
        "Depends": [
          [
            {
              "PackageName": "noffz-utp-io-core-lv18-x64",
              "Version": "3.12.0",
              "Relationship": 3
            }
          ]
        ],
        "Conflicts": [
          [
          ]
        ]
      }
    },
	
	
	
    "noffz-utp-io-plugin-cognexdatamancodereader-lv14-x86": {
      "Dependencies": {
        "Depends": [
          [
            {
              "PackageName": "noffz-utp-io-core-lv14-x86",
              "Version": "3.12.0",
              "Relationship": 3
            }
          ]
        ],
        "Conflicts": [
          [
          ]
        ]
      }
    },	
    "noffz-utp-io-plugin-cognexdatamancodereader-lv15-x86": {
      "Dependencies": {
        "Depends": [
          [
            {
              "PackageName": "noffz-utp-io-core-lv15-x86",
              "Version": "3.12.0",
              "Relationship": 3
            }
          ]
        ],
        "Conflicts": [
          [
          ]
        ]
      }
    },
    "noffz-utp-io-plugin-cognexdatamancodereader-lv16-x86": {
      "Dependencies": {
        "Depends": [
          [
            {
              "PackageName": "noffz-utp-io-core-lv16-x86",
              "Version": "3.12.0",
              "Relationship": 3
            }
          ]
        ],
        "Conflicts": [
          [
          ]
        ]
      }
    },
    "noffz-utp-io-plugin-cognexdatamancodereader-lv16-x64": {
      "Dependencies": {
        "Depends": [
          [
            {
              "PackageName": "noffz-utp-io-core-lv16-x64",
              "Version": "3.12.0",
              "Relationship": 3
            }
          ]
        ],
        "Conflicts": [
          [
          ]
        ]
      }
    },
    "noffz-utp-io-plugin-cognexdatamancodereader-lv17-x86": {
      "Dependencies": {
        "Depends": [
          [
            {
              "PackageName": "noffz-utp-io-core-lv17-x86",
              "Version": "3.12.0",
              "Relationship": 3
            }
          ]
        ],
        "Conflicts": [
          [
          ]
        ]
      }
    },
    "noffz-utp-io-plugin-cognexdatamancodereader-lv17-x64": {
      "Dependencies": {
        "Depends": [
          [
            {
              "PackageName": "noffz-utp-io-core-lv17-x64",
              "Version": "3.12.0",
              "Relationship": 3
            }
          ]
        ],
        "Conflicts": [
          [
          ]
        ]
      }
    },
    "noffz-utp-io-plugin-cognexdatamancodereader-lv18-x86": {
      "Dependencies": {
        "Depends": [
          [
            {
              "PackageName": "noffz-utp-io-core-lv18-x86",
              "Version": "3.12.0",
              "Relationship": 3
            }
          ]
        ],
        "Conflicts": [
          [
          ]
        ]
      }
    },
    "noffz-utp-io-plugin-cognexdatamancodereader-lv18-x64": {
      "Dependencies": {
        "Depends": [
          [
            {
              "PackageName": "noffz-utp-io-core-lv18-x64",
              "Version": "3.12.0",
              "Relationship": 3
            }
          ]
        ],
        "Conflicts": [
          [
          ]
        ]
      }
    },

	
    "noffz-utp-io-plugin-driesenandkernenvironmentalsensor-lv14-x86": {
      "Dependencies": {
        "Depends": [
          [
            {
              "PackageName": "noffz-utp-io-core-lv14-x86",
              "Version": "3.12.0",
              "Relationship": 3
            }
          ]
        ],
        "Conflicts": [
          [
          ]
        ]
      }
    },	
    "noffz-utp-io-plugin-driesenandkernenvironmentalsensor-lv15-x86": {
      "Dependencies": {
        "Depends": [
          [
            {
              "PackageName": "noffz-utp-io-core-lv15-x86",
              "Version": "3.12.0",
              "Relationship": 3
            }
          ]
        ],
        "Conflicts": [
          [
          ]
        ]
      }
    },
    "noffz-utp-io-plugin-driesenandkernenvironmentalsensor-lv16-x86": {
      "Dependencies": {
        "Depends": [
          [
            {
              "PackageName": "noffz-utp-io-core-lv16-x86",
              "Version": "3.12.0",
              "Relationship": 3
            }
          ]
        ],
        "Conflicts": [
          [
          ]
        ]
      }
    },
    "noffz-utp-io-plugin-driesenandkernenvironmentalsensor-lv16-x64": {
      "Dependencies": {
        "Depends": [
          [
            {
              "PackageName": "noffz-utp-io-core-lv16-x64",
              "Version": "3.12.0",
              "Relationship": 3
            }
          ]
        ],
        "Conflicts": [
          [
          ]
        ]
      }
    },
    "noffz-utp-io-plugin-driesenandkernenvironmentalsensor-lv17-x86": {
      "Dependencies": {
        "Depends": [
          [
            {
              "PackageName": "noffz-utp-io-core-lv17-x86",
              "Version": "3.12.0",
              "Relationship": 3
            }
          ]
        ],
        "Conflicts": [
          [
          ]
        ]
      }
    },
    "noffz-utp-io-plugin-driesenandkernenvironmentalsensor-lv17-x64": {
      "Dependencies": {
        "Depends": [
          [
            {
              "PackageName": "noffz-utp-io-core-lv17-x64",
              "Version": "3.12.0",
              "Relationship": 3
            }
          ]
        ],
        "Conflicts": [
          [
          ]
        ]
      }
    },
    "noffz-utp-io-plugin-driesenandkernenvironmentalsensor-lv18-x86": {
      "Dependencies": {
        "Depends": [
          [
            {
              "PackageName": "noffz-utp-io-core-lv18-x86",
              "Version": "3.12.0",
              "Relationship": 3
            }
          ]
        ],
        "Conflicts": [
          [
          ]
        ]
      }
    },
    "noffz-utp-io-plugin-driesenandkernenvironmentalsensor-lv18-x64": {
      "Dependencies": {
        "Depends": [
          [
            {
              "PackageName": "noffz-utp-io-core-lv18-x64",
              "Version": "3.12.0",
              "Relationship": 3
            }
          ]
        ],
        "Conflicts": [
          [
          ]
        ]
      }
    },
	
	"noffz-utp-io-plugin-elektroautomatikdceload-lv14-x86": {
      "Dependencies": {
        "Depends": [
          [
            {
              "PackageName": "noffz-utp-io-core-lv14-x86",
              "Version": "3.12.0",
              "Relationship": 3
            }
          ]
        ],
        "Conflicts": [
          [
          ]
        ]
      }
    },
	
	"noffz-utp-io-plugin-elektroautomatikdceload-lv15-x86": {
      "Dependencies": {
        "Depends": [
          [
            {
              "PackageName": "noffz-utp-io-core-lv15-x86",
              "Version": "3.12.0",
              "Relationship": 3
            }
          ]
        ],
        "Conflicts": [
          [
          ]
        ]
      }
    },
    "noffz-utp-io-plugin-elektroautomatikdceload-lv16-x86": {
      "Dependencies": {
        "Depends": [
          [
            {
              "PackageName": "noffz-utp-io-core-lv16-x86",
              "Version": "3.12.0",
              "Relationship": 3
            }
          ]
        ],
        "Conflicts": [
          [
          ]
        ]
      }
    },
    "noffz-utp-io-plugin-elektroautomatikdceload-lv16-x64": {
      "Dependencies": {
        "Depends": [
          [
            {
              "PackageName": "noffz-utp-io-core-lv16-x64",
              "Version": "3.12.0",
              "Relationship": 3
            }
          ]
        ],
        "Conflicts": [
          [
          ]
        ]
      }
    },
    "noffz-utp-io-plugin-elektroautomatikdceload-lv17-x86": {
      "Dependencies": {
        "Depends": [
          [
            {
              "PackageName": "noffz-utp-io-core-lv17-x86",
              "Version": "3.12.0",
              "Relationship": 3
            }
          ]
        ],
        "Conflicts": [
          [
          ]
        ]
      }
    },
    "noffz-utp-io-plugin-elektroautomatikdceload-lv17-x64": {
      "Dependencies": {
        "Depends": [
          [
            {
              "PackageName": "noffz-utp-io-core-lv17-x64",
              "Version": "3.12.0",
              "Relationship": 3
            }
          ]
        ],
        "Conflicts": [
          [
          ]
        ]
      }
    },
    "noffz-utp-io-plugin-elektroautomatikdceload-lv18-x86": {
      "Dependencies": {
        "Depends": [
          [
            {
              "PackageName": "noffz-utp-io-core-lv18-x86",
              "Version": "3.12.0",
              "Relationship": 3
            }
          ]
        ],
        "Conflicts": [
          [
          ]
        ]
      }
    },
    "noffz-utp-io-plugin-elektroautomatikdceload-lv18-x64": {
      "Dependencies": {
        "Depends": [
          [
            {
              "PackageName": "noffz-utp-io-core-lv18-x64",
              "Version": "3.12.0",
              "Relationship": 3
            }
          ]
        ],
        "Conflicts": [
          [
          ]
        ]
      }
    },
	
	
	"noffz-utp-io-plugin-elektroautomatikdcpsu-lv14-x86": {
      "Dependencies": {
        "Depends": [
          [
            {
              "PackageName": "noffz-utp-io-core-lv14-x86",
              "Version": "3.12.0",
              "Relationship": 3
            }
          ]
        ],
        "Conflicts": [
          [
          ]
        ]
      }
    },
	"noffz-utp-io-plugin-elektroautomatikdcpsu-lv15-x86": {
      "Dependencies": {
        "Depends": [
          [
            {
              "PackageName": "noffz-utp-io-core-lv15-x86",
              "Version": "3.12.0",
              "Relationship": 3
            }
          ]
        ],
        "Conflicts": [
          [
          ]
        ]
      }
    },
    "noffz-utp-io-plugin-elektroautomatikdcpsu-lv16-x86": {
      "Dependencies": {
        "Depends": [
          [
            {
              "PackageName": "noffz-utp-io-core-lv16-x86",
              "Version": "3.12.0",
              "Relationship": 3
            }
          ]
        ],
        "Conflicts": [
          [
          ]
        ]
      }
    },
    "noffz-utp-io-plugin-elektroautomatikdcpsu-lv16-x64": {
      "Dependencies": {
        "Depends": [
          [
            {
              "PackageName": "noffz-utp-io-core-lv16-x64",
              "Version": "3.12.0",
              "Relationship": 3
            }
          ]
        ],
        "Conflicts": [
          [
          ]
        ]
      }
    },
    "noffz-utp-io-plugin-elektroautomatikdcpsu-lv17-x86": {
      "Dependencies": {
        "Depends": [
          [
            {
              "PackageName": "noffz-utp-io-core-lv17-x86",
              "Version": "3.12.0",
              "Relationship": 3
            }
          ]
        ],
        "Conflicts": [
          [
          ]
        ]
      }
    },
    "noffz-utp-io-plugin-elektroautomatikdcpsu-lv17-x64": {
      "Dependencies": {
        "Depends": [
          [
            {
              "PackageName": "noffz-utp-io-core-lv17-x64",
              "Version": "3.12.0",
              "Relationship": 3
            }
          ]
        ],
        "Conflicts": [
          [
          ]
        ]
      }
    },
    "noffz-utp-io-plugin-elektroautomatikdcpsu-lv18-x86": {
      "Dependencies": {
        "Depends": [
          [
            {
              "PackageName": "noffz-utp-io-core-lv18-x86",
              "Version": "3.12.0",
              "Relationship": 3
            }
          ]
        ],
        "Conflicts": [
          [
          ]
        ]
      }
    },
    "noffz-utp-io-plugin-elektroautomatikdcpsu-lv18-x64": {
      "Dependencies": {
        "Depends": [
          [
            {
              "PackageName": "noffz-utp-io-core-lv18-x64",
              "Version": "3.12.0",
              "Relationship": 3
            }
          ]
        ],
        "Conflicts": [
          [
          ]
        ]
      }
    },

	
	
	"noffz-utp-io-plugin-hoecherlandhackldceload-lv14-x86": {
      "Dependencies": {
        "Depends": [
          [
            {
              "PackageName": "noffz-utp-io-core-lv14-x86",
              "Version": "3.12.0",
              "Relationship": 3
            }
          ]
        ],
        "Conflicts": [
          [
          ]
        ]
      }
    },
	"noffz-utp-io-plugin-hoecherlandhackldceload-lv15-x86": {
      "Dependencies": {
        "Depends": [
          [
            {
              "PackageName": "noffz-utp-io-core-lv15-x86",
              "Version": "3.12.0",
              "Relationship": 3
            }
          ]
        ],
        "Conflicts": [
          [
          ]
        ]
      }
    },
    "noffz-utp-io-plugin-hoecherlandhackldceload-lv16-x86": {
      "Dependencies": {
        "Depends": [
          [
            {
              "PackageName": "noffz-utp-io-core-lv16-x86",
              "Version": "3.12.0",
              "Relationship": 3
            }
          ]
        ],
        "Conflicts": [
          [
          ]
        ]
      }
    },
    "noffz-utp-io-plugin-hoecherlandhackldceload-lv16-x64": {
      "Dependencies": {
        "Depends": [
          [
            {
              "PackageName": "noffz-utp-io-core-lv16-x64",
              "Version": "3.12.0",
              "Relationship": 3
            }
          ]
        ],
        "Conflicts": [
          [
          ]
        ]
      }
    },
    "noffz-utp-io-plugin-hoecherlandhackldceload-lv17-x86": {
      "Dependencies": {
        "Depends": [
          [
            {
              "PackageName": "noffz-utp-io-core-lv17-x86",
              "Version": "3.12.0",
              "Relationship": 3
            }
          ]
        ],
        "Conflicts": [
          [
          ]
        ]
      }
    },
    "noffz-utp-io-plugin-hoecherlandhackldceload-lv17-x64": {
      "Dependencies": {
        "Depends": [
          [
            {
              "PackageName": "noffz-utp-io-core-lv17-x64",
              "Version": "3.12.0",
              "Relationship": 3
            }
          ]
        ],
        "Conflicts": [
          [
          ]
        ]
      }
    },
    "noffz-utp-io-plugin-hoecherlandhackldceload-lv18-x86": {
      "Dependencies": {
        "Depends": [
          [
            {
              "PackageName": "noffz-utp-io-core-lv18-x86",
              "Version": "3.12.0",
              "Relationship": 3
            }
          ]
        ],
        "Conflicts": [
          [
          ]
        ]
      }
    },
    "noffz-utp-io-plugin-hoecherlandhackldceload-lv18-x64": {
      "Dependencies": {
        "Depends": [
          [
            {
              "PackageName": "noffz-utp-io-core-lv18-x64",
              "Version": "3.12.0",
              "Relationship": 3
            }
          ]
        ],
        "Conflicts": [
          [
          ]
        ]
      }
    },
	
	
	
	"noffz-utp-io-plugin-keyence1d2dcodereader-lv14-x86": {
      "Dependencies": {
        "Depends": [
          [
            {
              "PackageName": "noffz-utp-io-core-lv14-x86",
              "Version": "3.12.0",
              "Relationship": 3
            }
          ]
        ],
        "Conflicts": [
          [
          ]
        ]
      }
    },
	"noffz-utp-io-plugin-keyence1d2dcodereader-lv15-x86": {
      "Dependencies": {
        "Depends": [
          [
            {
              "PackageName": "noffz-utp-io-core-lv15-x86",
              "Version": "3.12.0",
              "Relationship": 3
            }
          ]
        ],
        "Conflicts": [
          [
          ]
        ]
      }
    },
    "noffz-utp-io-plugin-keyence1d2dcodereader-lv16-x86": {
      "Dependencies": {
        "Depends": [
          [
            {
              "PackageName": "noffz-utp-io-core-lv16-x86",
              "Version": "3.12.0",
              "Relationship": 3
            }
          ]
        ],
        "Conflicts": [
          [
          ]
        ]
      }
    },
    "noffz-utp-io-plugin-keyence1d2dcodereader-lv16-x64": {
      "Dependencies": {
        "Depends": [
          [
            {
              "PackageName": "noffz-utp-io-core-lv16-x64",
              "Version": "3.12.0",
              "Relationship": 3
            }
          ]
        ],
        "Conflicts": [
          [
          ]
        ]
      }
    },
    "noffz-utp-io-plugin-keyence1d2dcodereader-lv17-x86": {
      "Dependencies": {
        "Depends": [
          [
            {
              "PackageName": "noffz-utp-io-core-lv17-x86",
              "Version": "3.12.0",
              "Relationship": 3
            }
          ]
        ],
        "Conflicts": [
          [
          ]
        ]
      }
    },
    "noffz-utp-io-plugin-keyence1d2dcodereader-lv17-x64": {
      "Dependencies": {
        "Depends": [
          [
            {
              "PackageName": "noffz-utp-io-core-lv17-x64",
              "Version": "3.12.0",
              "Relationship": 3
            }
          ]
        ],
        "Conflicts": [
          [
          ]
        ]
      }
    },
    "noffz-utp-io-plugin-keyence1d2dcodereader-lv18-x86": {
      "Dependencies": {
        "Depends": [
          [
            {
              "PackageName": "noffz-utp-io-core-lv18-x86",
              "Version": "3.12.0",
              "Relationship": 3
            }
          ]
        ],
        "Conflicts": [
          [
          ]
        ]
      }
    },
    "noffz-utp-io-plugin-keyence1d2dcodereader-lv18-x64": {
      "Dependencies": {
        "Depends": [
          [
            {
              "PackageName": "noffz-utp-io-core-lv18-x64",
              "Version": "3.12.0",
              "Relationship": 3
            }
          ]
        ],
        "Conflicts": [
          [
          ]
        ]
      }
    },
	

	
	
	"noffz-utp-io-plugin-keysightdac-lv14-x86": {
      "Dependencies": {
        "Depends": [
          [
            {
              "PackageName": "noffz-utp-io-core-lv14-x86",
              "Version": "3.12.0",
              "Relationship": 3
            }
          ]
        ],
        "Conflicts": [
          [
          ]
        ]
      }
    },
	"noffz-utp-io-plugin-keysightdac-lv15-x86": {
      "Dependencies": {
        "Depends": [
          [
            {
              "PackageName": "noffz-utp-io-core-lv15-x86",
              "Version": "3.12.0",
              "Relationship": 3
            }
          ]
        ],
        "Conflicts": [
          [
          ]
        ]
      }
    },
    "noffz-utp-io-plugin-keysightdac-lv16-x86": {
      "Dependencies": {
        "Depends": [
          [
            {
              "PackageName": "noffz-utp-io-core-lv16-x86",
              "Version": "3.12.0",
              "Relationship": 3
            }
          ]
        ],
        "Conflicts": [
          [
          ]
        ]
      }
    },
    "noffz-utp-io-plugin-keysightdac-lv16-x64": {
      "Dependencies": {
        "Depends": [
          [
            {
              "PackageName": "noffz-utp-io-core-lv16-x64",
              "Version": "3.12.0",
              "Relationship": 3
            }
          ]
        ],
        "Conflicts": [
          [
          ]
        ]
      }
    },
    "noffz-utp-io-plugin-keysightdac-lv17-x86": {
      "Dependencies": {
        "Depends": [
          [
            {
              "PackageName": "noffz-utp-io-core-lv17-x86",
              "Version": "3.12.0",
              "Relationship": 3
            }
          ]
        ],
        "Conflicts": [
          [
          ]
        ]
      }
    },
    "noffz-utp-io-plugin-keysightdac-lv17-x64": {
      "Dependencies": {
        "Depends": [
          [
            {
              "PackageName": "noffz-utp-io-core-lv17-x64",
              "Version": "3.12.0",
              "Relationship": 3
            }
          ]
        ],
        "Conflicts": [
          [
          ]
        ]
      }
    },
    "noffz-utp-io-plugin-keysightdac-lv18-x86": {
      "Dependencies": {
        "Depends": [
          [
            {
              "PackageName": "noffz-utp-io-core-lv18-x86",
              "Version": "3.12.0",
              "Relationship": 3
            }
          ]
        ],
        "Conflicts": [
          [
          ]
        ]
      }
    },
    "noffz-utp-io-plugin-keysightdac-lv18-x64": {
      "Dependencies": {
        "Depends": [
          [
            {
              "PackageName": "noffz-utp-io-core-lv18-x64",
              "Version": "3.12.0",
              "Relationship": 3
            }
          ]
        ],
        "Conflicts": [
          [
          ]
        ]
      }
    },
	
	
	
	"noffz-utp-io-plugin-keysightdcpsu-lv14-x86": {
      "Dependencies": {
        "Depends": [
          [
            {
              "PackageName": "noffz-utp-io-core-lv14-x86",
              "Version": "3.12.0",
              "Relationship": 3
            }
          ]
        ],
        "Conflicts": [
          [
          ]
        ]
      }
    },
	"noffz-utp-io-plugin-keysightdcpsu-lv15-x86": {
      "Dependencies": {
        "Depends": [
          [
            {
              "PackageName": "noffz-utp-io-core-lv15-x86",
              "Version": "3.12.0",
              "Relationship": 3
            }
          ]
        ],
        "Conflicts": [
          [
          ]
        ]
      }
    },
    "noffz-utp-io-plugin-keysightdcpsu-lv16-x86": {
      "Dependencies": {
        "Depends": [
          [
            {
              "PackageName": "noffz-utp-io-core-lv16-x86",
              "Version": "3.12.0",
              "Relationship": 3
            }
          ]
        ],
        "Conflicts": [
          [
          ]
        ]
      }
    },
    "noffz-utp-io-plugin-keysightdcpsu-lv16-x64": {
      "Dependencies": {
        "Depends": [
          [
            {
              "PackageName": "noffz-utp-io-core-lv16-x64",
              "Version": "3.12.0",
              "Relationship": 3
            }
          ]
        ],
        "Conflicts": [
          [
          ]
        ]
      }
    },
    "noffz-utp-io-plugin-keysightdcpsu-lv17-x86": {
      "Dependencies": {
        "Depends": [
          [
            {
              "PackageName": "noffz-utp-io-core-lv17-x86",
              "Version": "3.12.0",
              "Relationship": 3
            }
          ]
        ],
        "Conflicts": [
          [
          ]
        ]
      }
    },
    "noffz-utp-io-plugin-keysightdcpsu-lv17-x64": {
      "Dependencies": {
        "Depends": [
          [
            {
              "PackageName": "noffz-utp-io-core-lv17-x64",
              "Version": "3.12.0",
              "Relationship": 3
            }
          ]
        ],
        "Conflicts": [
          [
          ]
        ]
      }
    },
    "noffz-utp-io-plugin-keysightdcpsu-lv18-x86": {
      "Dependencies": {
        "Depends": [
          [
            {
              "PackageName": "noffz-utp-io-core-lv18-x86",
              "Version": "3.12.0",
              "Relationship": 3
            }
          ]
        ],
        "Conflicts": [
          [
          ]
        ]
      }
    },
    "noffz-utp-io-plugin-keysightdcpsu-lv18-x64": {
      "Dependencies": {
        "Depends": [
          [
            {
              "PackageName": "noffz-utp-io-core-lv18-x64",
              "Version": "3.12.0",
              "Relationship": 3
            }
          ]
        ],
        "Conflicts": [
          [
          ]
        ]
      }
    },
	
	
	
	
	"noffz-utp-io-plugin-keysightdmm-lv14-x86": {
      "Dependencies": {
        "Depends": [
          [
            {
              "PackageName": "noffz-utp-io-core-lv14-x86",
              "Version": "3.12.0",
              "Relationship": 3
            }
          ]
        ],
        "Conflicts": [
          [
          ]
        ]
      }
    },
	"noffz-utp-io-plugin-keysightdmm-lv15-x86": {
      "Dependencies": {
        "Depends": [
          [
            {
              "PackageName": "noffz-utp-io-core-lv15-x86",
              "Version": "3.12.0",
              "Relationship": 3
            }
          ]
        ],
        "Conflicts": [
          [
          ]
        ]
      }
    },
    "noffz-utp-io-plugin-keysightdmm-lv16-x86": {
      "Dependencies": {
        "Depends": [
          [
            {
              "PackageName": "noffz-utp-io-core-lv16-x86",
              "Version": "3.12.0",
              "Relationship": 3
            }
          ]
        ],
        "Conflicts": [
          [
          ]
        ]
      }
    },
    "noffz-utp-io-plugin-keysightdmm-lv16-x64": {
      "Dependencies": {
        "Depends": [
          [
            {
              "PackageName": "noffz-utp-io-core-lv16-x64",
              "Version": "3.12.0",
              "Relationship": 3
            }
          ]
        ],
        "Conflicts": [
          [
          ]
        ]
      }
    },
    "noffz-utp-io-plugin-keysightdmm-lv17-x86": {
      "Dependencies": {
        "Depends": [
          [
            {
              "PackageName": "noffz-utp-io-core-lv17-x86",
              "Version": "3.12.0",
              "Relationship": 3
            }
          ]
        ],
        "Conflicts": [
          [
          ]
        ]
      }
    },
    "noffz-utp-io-plugin-keysightdmm-lv17-x64": {
      "Dependencies": {
        "Depends": [
          [
            {
              "PackageName": "noffz-utp-io-core-lv17-x64",
              "Version": "3.12.0",
              "Relationship": 3
            }
          ]
        ],
        "Conflicts": [
          [
          ]
        ]
      }
    },
    "noffz-utp-io-plugin-keysightdmm-lv18-x86": {
      "Dependencies": {
        "Depends": [
          [
            {
              "PackageName": "noffz-utp-io-core-lv18-x86",
              "Version": "3.12.0",
              "Relationship": 3
            }
          ]
        ],
        "Conflicts": [
          [
          ]
        ]
      }
    },
    "noffz-utp-io-plugin-keysightdmm-lv18-x64": {
      "Dependencies": {
        "Depends": [
          [
            {
              "PackageName": "noffz-utp-io-core-lv18-x64",
              "Version": "3.12.0",
              "Relationship": 3
            }
          ]
        ],
        "Conflicts": [
          [
          ]
        ]
      }
    },
	
	
	
	"noffz-utp-io-plugin-maxim1wire-lv14-x86": {
      "Dependencies": {
        "Depends": [
          [
            {
              "PackageName": "noffz-utp-io-core-lv14-x86",
              "Version": "3.12.0",
              "Relationship": 3
            }
          ]
        ],
        "Conflicts": [
          [
          ]
        ]
      }
    },
	"noffz-utp-io-plugin-maxim1wire-lv15-x86": {
      "Dependencies": {
        "Depends": [
          [
            {
              "PackageName": "noffz-utp-io-core-lv15-x86",
              "Version": "3.12.0",
              "Relationship": 3
            }
          ]
        ],
        "Conflicts": [
          [
          ]
        ]
      }
    },
    "noffz-utp-io-plugin-maxim1wire-lv16-x86": {
      "Dependencies": {
        "Depends": [
          [
            {
              "PackageName": "noffz-utp-io-core-lv16-x86",
              "Version": "3.12.0",
              "Relationship": 3
            }
          ]
        ],
        "Conflicts": [
          [
          ]
        ]
      }
    },
    "noffz-utp-io-plugin-maxim1wire-lv16-x64": {
      "Dependencies": {
        "Depends": [
          [
            {
              "PackageName": "noffz-utp-io-core-lv16-x64",
              "Version": "3.12.0",
              "Relationship": 3
            }
          ]
        ],
        "Conflicts": [
          [
          ]
        ]
      }
    },
    "noffz-utp-io-plugin-maxim1wire-lv17-x86": {
      "Dependencies": {
        "Depends": [
          [
            {
              "PackageName": "noffz-utp-io-core-lv17-x86",
              "Version": "3.12.0",
              "Relationship": 3
            }
          ]
        ],
        "Conflicts": [
          [
          ]
        ]
      }
    },
    "noffz-utp-io-plugin-maxim1wire-lv17-x64": {
      "Dependencies": {
        "Depends": [
          [
            {
              "PackageName": "noffz-utp-io-core-lv17-x64",
              "Version": "3.12.0",
              "Relationship": 3
            }
          ]
        ],
        "Conflicts": [
          [
          ]
        ]
      }
    },
    "noffz-utp-io-plugin-maxim1wire-lv18-x86": {
      "Dependencies": {
        "Depends": [
          [
            {
              "PackageName": "noffz-utp-io-core-lv18-x86",
              "Version": "3.12.0",
              "Relationship": 3
            }
          ]
        ],
        "Conflicts": [
          [
          ]
        ]
      }
    },
    "noffz-utp-io-plugin-maxim1wire-lv18-x64": {
      "Dependencies": {
        "Depends": [
          [
            {
              "PackageName": "noffz-utp-io-core-lv18-x64",
              "Version": "3.12.0",
              "Relationship": 3
            }
          ]
        ],
        "Conflicts": [
          [
          ]
        ]
      }
    },



	"noffz-utp-io-plugin-minicircuitsswitch-lv14-x86": {
      "Dependencies": {
        "Depends": [
          [
            {
              "PackageName": "noffz-utp-io-core-lv14-x86",
              "Version": "3.12.0",
              "Relationship": 3
            }
          ]
        ],
        "Conflicts": [
          [
          ]
        ]
      }
    },
	"noffz-utp-io-plugin-minicircuitsswitch-lv15-x86": {
      "Dependencies": {
        "Depends": [
          [
            {
              "PackageName": "noffz-utp-io-core-lv15-x86",
              "Version": "3.12.0",
              "Relationship": 3
            }
          ]
        ],
        "Conflicts": [
          [
          ]
        ]
      }
    },
    "noffz-utp-io-plugin-minicircuitsswitch-lv16-x86": {
      "Dependencies": {
        "Depends": [
          [
            {
              "PackageName": "noffz-utp-io-core-lv16-x86",
              "Version": "3.12.0",
              "Relationship": 3
            }
          ]
        ],
        "Conflicts": [
          [
          ]
        ]
      }
    },
    "noffz-utp-io-plugin-minicircuitsswitch-lv16-x64": {
      "Dependencies": {
        "Depends": [
          [
            {
              "PackageName": "noffz-utp-io-core-lv16-x64",
              "Version": "3.12.0",
              "Relationship": 3
            }
          ]
        ],
        "Conflicts": [
          [
          ]
        ]
      }
    },
    "noffz-utp-io-plugin-minicircuitsswitch-lv17-x86": {
      "Dependencies": {
        "Depends": [
          [
            {
              "PackageName": "noffz-utp-io-core-lv17-x86",
              "Version": "3.12.0",
              "Relationship": 3
            }
          ]
        ],
        "Conflicts": [
          [
          ]
        ]
      }
    },
    "noffz-utp-io-plugin-minicircuitsswitch-lv17-x64": {
      "Dependencies": {
        "Depends": [
          [
            {
              "PackageName": "noffz-utp-io-core-lv17-x64",
              "Version": "3.12.0",
              "Relationship": 3
            }
          ]
        ],
        "Conflicts": [
          [
          ]
        ]
      }
    },
    "noffz-utp-io-plugin-minicircuitsswitch-lv18-x86": {
      "Dependencies": {
        "Depends": [
          [
            {
              "PackageName": "noffz-utp-io-core-lv18-x86",
              "Version": "3.12.0",
              "Relationship": 3
            }
          ]
        ],
        "Conflicts": [
          [
          ]
        ]
      }
    },
    "noffz-utp-io-plugin-minicircuitsswitch-lv18-x64": {
      "Dependencies": {
        "Depends": [
          [
            {
              "PackageName": "noffz-utp-io-core-lv18-x64",
              "Version": "3.12.0",
              "Relationship": 3
            }
          ]
        ],
        "Conflicts": [
          [
          ]
        ]
      }
    },

	
	
	"noffz-utp-io-plugin-nidaqmx-lv14-x86": {
      "Dependencies": {
        "Depends": [
          [
            {
              "PackageName": "noffz-utp-io-core-lv14-x86",
              "Version": "3.12.0",
              "Relationship": 3
            }
          ]
        ],
        "Conflicts": [
          [
          ]
        ]
      }
    },
	"noffz-utp-io-plugin-nidaqmx-lv15-x86": {
      "Dependencies": {
        "Depends": [
          [
            {
              "PackageName": "noffz-utp-io-core-lv15-x86",
              "Version": "3.12.0",
              "Relationship": 3
            }
          ]
        ],
        "Conflicts": [
          [
          ]
        ]
      }
    },
    "noffz-utp-io-plugin-nidaqmx-lv16-x86": {
      "Dependencies": {
        "Depends": [
          [
            {
              "PackageName": "noffz-utp-io-core-lv16-x86",
              "Version": "3.12.0",
              "Relationship": 3
            }
          ]
        ],
        "Conflicts": [
          [
          ]
        ]
      }
    },
    "noffz-utp-io-plugin-nidaqmx-lv16-x64": {
      "Dependencies": {
        "Depends": [
          [
            {
              "PackageName": "noffz-utp-io-core-lv16-x64",
              "Version": "3.12.0",
              "Relationship": 3
            }
          ]
        ],
        "Conflicts": [
          [
          ]
        ]
      }
    },
    "noffz-utp-io-plugin-nidaqmx-lv17-x86": {
      "Dependencies": {
        "Depends": [
          [
            {
              "PackageName": "noffz-utp-io-core-lv17-x86",
              "Version": "3.12.0",
              "Relationship": 3
            }
          ]
        ],
        "Conflicts": [
          [
          ]
        ]
      }
    },
    "noffz-utp-io-plugin-nidaqmx-lv17-x64": {
      "Dependencies": {
        "Depends": [
          [
            {
              "PackageName": "noffz-utp-io-core-lv17-x64",
              "Version": "3.12.0",
              "Relationship": 3
            }
          ]
        ],
        "Conflicts": [
          [
          ]
        ]
      }
    },
    "noffz-utp-io-plugin-nidaqmx-lv18-x86": {
      "Dependencies": {
        "Depends": [
          [
            {
              "PackageName": "noffz-utp-io-core-lv18-x86",
              "Version": "3.12.0",
              "Relationship": 3
            }
          ]
        ],
        "Conflicts": [
          [
          ]
        ]
      }
    },
    "noffz-utp-io-plugin-nidaqmx-lv18-x64": {
      "Dependencies": {
        "Depends": [
          [
            {
              "PackageName": "noffz-utp-io-core-lv18-x64",
              "Version": "3.12.0",
              "Relationship": 3
            }
          ]
        ],
        "Conflicts": [
          [
          ]
        ]
      }
    },
	
	
	
	"noffz-utp-io-plugin-nidcpower-lv14-x86": {
      "Dependencies": {
        "Depends": [
          [
            {
              "PackageName": "noffz-utp-io-core-lv14-x86",
              "Version": "3.12.0",
              "Relationship": 3
            }
          ]
        ],
        "Conflicts": [
          [
          ]
        ]
      }
    },
	"noffz-utp-io-plugin-nidcpower-lv15-x86": {
      "Dependencies": {
        "Depends": [
          [
            {
              "PackageName": "noffz-utp-io-core-lv15-x86",
              "Version": "3.12.0",
              "Relationship": 3
            }
          ]
        ],
        "Conflicts": [
          [
          ]
        ]
      }
    },
    "noffz-utp-io-plugin-nidcpower-lv16-x86": {
      "Dependencies": {
        "Depends": [
          [
            {
              "PackageName": "noffz-utp-io-core-lv16-x86",
              "Version": "3.12.0",
              "Relationship": 3
            }
          ]
        ],
        "Conflicts": [
          [
          ]
        ]
      }
    },
    "noffz-utp-io-plugin-nidcpower-lv16-x64": {
      "Dependencies": {
        "Depends": [
          [
            {
              "PackageName": "noffz-utp-io-core-lv16-x64",
              "Version": "3.12.0",
              "Relationship": 3
            }
          ]
        ],
        "Conflicts": [
          [
          ]
        ]
      }
    },
    "noffz-utp-io-plugin-nidcpower-lv17-x86": {
      "Dependencies": {
        "Depends": [
          [
            {
              "PackageName": "noffz-utp-io-core-lv17-x86",
              "Version": "3.12.0",
              "Relationship": 3
            }
          ]
        ],
        "Conflicts": [
          [
          ]
        ]
      }
    },
    "noffz-utp-io-plugin-nidcpower-lv17-x64": {
      "Dependencies": {
        "Depends": [
          [
            {
              "PackageName": "noffz-utp-io-core-lv17-x64",
              "Version": "3.12.0",
              "Relationship": 3
            }
          ]
        ],
        "Conflicts": [
          [
          ]
        ]
      }
    },
    "noffz-utp-io-plugin-nidcpower-lv18-x86": {
      "Dependencies": {
        "Depends": [
          [
            {
              "PackageName": "noffz-utp-io-core-lv18-x86",
              "Version": "3.12.0",
              "Relationship": 3
            }
          ]
        ],
        "Conflicts": [
          [
          ]
        ]
      }
    },
    "noffz-utp-io-plugin-nidcpower-lv18-x64": {
      "Dependencies": {
        "Depends": [
          [
            {
              "PackageName": "noffz-utp-io-core-lv18-x64",
              "Version": "3.12.0",
              "Relationship": 3
            }
          ]
        ],
        "Conflicts": [
          [
          ]
        ]
      }
    },

	
	
	"noffz-utp-io-plugin-nidmm-lv14-x86": {
      "Dependencies": {
        "Depends": [
          [
            {
              "PackageName": "noffz-utp-io-core-lv14-x86",
              "Version": "3.12.0",
              "Relationship": 3
            }
          ]
        ],
        "Conflicts": [
          [
          ]
        ]
      }
    },
	"noffz-utp-io-plugin-nidmm-lv15-x86": {
      "Dependencies": {
        "Depends": [
          [
            {
              "PackageName": "noffz-utp-io-core-lv15-x86",
              "Version": "3.12.0",
              "Relationship": 3
            }
          ]
        ],
        "Conflicts": [
          [
          ]
        ]
      }
    },
    "noffz-utp-io-plugin-nidmm-lv16-x86": {
      "Dependencies": {
        "Depends": [
          [
            {
              "PackageName": "noffz-utp-io-core-lv16-x86",
              "Version": "3.12.0",
              "Relationship": 3
            }
          ]
        ],
        "Conflicts": [
          [
          ]
        ]
      }
    },
    "noffz-utp-io-plugin-nidmm-lv16-x64": {
      "Dependencies": {
        "Depends": [
          [
            {
              "PackageName": "noffz-utp-io-core-lv16-x64",
              "Version": "3.12.0",
              "Relationship": 3
            }
          ]
        ],
        "Conflicts": [
          [
          ]
        ]
      }
    },
    "noffz-utp-io-plugin-nidmm-lv17-x86": {
      "Dependencies": {
        "Depends": [
          [
            {
              "PackageName": "noffz-utp-io-core-lv17-x86",
              "Version": "3.12.0",
              "Relationship": 3
            }
          ]
        ],
        "Conflicts": [
          [
          ]
        ]
      }
    },
    "noffz-utp-io-plugin-nidmm-lv17-x64": {
      "Dependencies": {
        "Depends": [
          [
            {
              "PackageName": "noffz-utp-io-core-lv17-x64",
              "Version": "3.12.0",
              "Relationship": 3
            }
          ]
        ],
        "Conflicts": [
          [
          ]
        ]
      }
    },
    "noffz-utp-io-plugin-nidmm-lv18-x86": {
      "Dependencies": {
        "Depends": [
          [
            {
              "PackageName": "noffz-utp-io-core-lv18-x86",
              "Version": "3.12.0",
              "Relationship": 3
            }
          ]
        ],
        "Conflicts": [
          [
          ]
        ]
      }
    },
    "noffz-utp-io-plugin-nidmm-lv18-x64": {
      "Dependencies": {
        "Depends": [
          [
            {
              "PackageName": "noffz-utp-io-core-lv18-x64",
              "Version": "3.12.0",
              "Relationship": 3
            }
          ]
        ],
        "Conflicts": [
          [
          ]
        ]
      }
    },
	
	
	
	"noffz-utp-io-plugin-niswitch-lv14-x86": {
      "Dependencies": {
        "Depends": [
          [
            {
              "PackageName": "noffz-utp-io-core-lv14-x86",
              "Version": "3.12.0",
              "Relationship": 3
            }
          ]
        ],
        "Conflicts": [
          [
          ]
        ]
      }
    },
	"noffz-utp-io-plugin-niswitch-lv15-x86": {
      "Dependencies": {
        "Depends": [
          [
            {
              "PackageName": "noffz-utp-io-core-lv15-x86",
              "Version": "3.12.0",
              "Relationship": 3
            }
          ]
        ],
        "Conflicts": [
          [
          ]
        ]
      }
    },
    "noffz-utp-io-plugin-niswitch-lv16-x86": {
      "Dependencies": {
        "Depends": [
          [
            {
              "PackageName": "noffz-utp-io-core-lv16-x86",
              "Version": "3.12.0",
              "Relationship": 3
            }
          ]
        ],
        "Conflicts": [
          [
          ]
        ]
      }
    },
    "noffz-utp-io-plugin-niswitch-lv16-x64": {
      "Dependencies": {
        "Depends": [
          [
            {
              "PackageName": "noffz-utp-io-core-lv16-x64",
              "Version": "3.12.0",
              "Relationship": 3
            }
          ]
        ],
        "Conflicts": [
          [
          ]
        ]
      }
    },
    "noffz-utp-io-plugin-niswitch-lv17-x86": {
      "Dependencies": {
        "Depends": [
          [
            {
              "PackageName": "noffz-utp-io-core-lv17-x86",
              "Version": "3.12.0",
              "Relationship": 3
            }
          ]
        ],
        "Conflicts": [
          [
          ]
        ]
      }
    },
    "noffz-utp-io-plugin-niswitch-lv17-x64": {
      "Dependencies": {
        "Depends": [
          [
            {
              "PackageName": "noffz-utp-io-core-lv17-x64",
              "Version": "3.12.0",
              "Relationship": 3
            }
          ]
        ],
        "Conflicts": [
          [
          ]
        ]
      }
    },
    "noffz-utp-io-plugin-niswitch-lv18-x86": {
      "Dependencies": {
        "Depends": [
          [
            {
              "PackageName": "noffz-utp-io-core-lv18-x86",
              "Version": "3.12.0",
              "Relationship": 3
            }
          ]
        ],
        "Conflicts": [
          [
          ]
        ]
      }
    },
    "noffz-utp-io-plugin-niswitch-lv18-x64": {
      "Dependencies": {
        "Depends": [
          [
            {
              "PackageName": "noffz-utp-io-core-lv18-x64",
              "Version": "3.12.0",
              "Relationship": 3
            }
          ]
        ],
        "Conflicts": [
          [
          ]
        ]
      }
    },
	
	
	
	"noffz-utp-io-plugin-nixnet-lv14-x86": {
      "Dependencies": {
        "Depends": [
          [
            {
              "PackageName": "noffz-utp-io-core-lv14-x86",
              "Version": "3.12.0",
              "Relationship": 3
            }
          ]
        ],
        "Conflicts": [
          [
          ]
        ]
      }
    },
	"noffz-utp-io-plugin-nixnet-lv15-x86": {
      "Dependencies": {
        "Depends": [
          [
            {
              "PackageName": "noffz-utp-io-core-lv15-x86",
              "Version": "3.12.0",
              "Relationship": 3
            }
          ]
        ],
        "Conflicts": [
          [
          ]
        ]
      }
    },
    "noffz-utp-io-plugin-nixnet-lv16-x86": {
      "Dependencies": {
        "Depends": [
          [
            {
              "PackageName": "noffz-utp-io-core-lv16-x86",
              "Version": "3.12.0",
              "Relationship": 3
            }
          ]
        ],
        "Conflicts": [
          [
          ]
        ]
      }
    },
    "noffz-utp-io-plugin-nixnet-lv16-x64": {
      "Dependencies": {
        "Depends": [
          [
            {
              "PackageName": "noffz-utp-io-core-lv16-x64",
              "Version": "3.12.0",
              "Relationship": 3
            }
          ]
        ],
        "Conflicts": [
          [
          ]
        ]
      }
    },
    "noffz-utp-io-plugin-nixnet-lv17-x86": {
      "Dependencies": {
        "Depends": [
          [
            {
              "PackageName": "noffz-utp-io-core-lv17-x86",
              "Version": "3.12.0",
              "Relationship": 3
            }
          ]
        ],
        "Conflicts": [
          [
          ]
        ]
      }
    },
    "noffz-utp-io-plugin-nixnet-lv17-x64": {
      "Dependencies": {
        "Depends": [
          [
            {
              "PackageName": "noffz-utp-io-core-lv17-x64",
              "Version": "3.12.0",
              "Relationship": 3
            }
          ]
        ],
        "Conflicts": [
          [
          ]
        ]
      }
    },
    "noffz-utp-io-plugin-nixnet-lv18-x86": {
      "Dependencies": {
        "Depends": [
          [
            {
              "PackageName": "noffz-utp-io-core-lv18-x86",
              "Version": "3.12.0",
              "Relationship": 3
            }
          ]
        ],
        "Conflicts": [
          [
          ]
        ]
      }
    },
    "noffz-utp-io-plugin-nixnet-lv18-x64": {
      "Dependencies": {
        "Depends": [
          [
            {
              "PackageName": "noffz-utp-io-core-lv18-x64",
              "Version": "3.12.0",
              "Relationship": 3
            }
          ]
        ],
        "Conflicts": [
          [
          ]
        ]
      }
    },
	
	
	
	"noffz-utp-io-plugin-noffzgeneric-lv14-x86": {
      "Dependencies": {
        "Depends": [
          [
            {
              "PackageName": "noffz-utp-io-core-lv14-x86",
              "Version": "3.12.0",
              "Relationship": 3
            }
          ]
        ],
        "Conflicts": [
          [
          ]
        ]
      }
    },
	"noffz-utp-io-plugin-noffzgeneric-lv15-x86": {
      "Dependencies": {
        "Depends": [
          [
            {
              "PackageName": "noffz-utp-io-core-lv15-x86",
              "Version": "3.12.0",
              "Relationship": 3
            }
          ]
        ],
        "Conflicts": [
          [
          ]
        ]
      }
    },
    "noffz-utp-io-plugin-noffzgeneric-lv16-x86": {
      "Dependencies": {
        "Depends": [
          [
            {
              "PackageName": "noffz-utp-io-core-lv16-x86",
              "Version": "3.12.0",
              "Relationship": 3
            }
          ]
        ],
        "Conflicts": [
          [
          ]
        ]
      }
    },
    "noffz-utp-io-plugin-noffzgeneric-lv16-x64": {
      "Dependencies": {
        "Depends": [
          [
            {
              "PackageName": "noffz-utp-io-core-lv16-x64",
              "Version": "3.12.0",
              "Relationship": 3
            }
          ]
        ],
        "Conflicts": [
          [
          ]
        ]
      }
    },
    "noffz-utp-io-plugin-noffzgeneric-lv17-x86": {
      "Dependencies": {
        "Depends": [
          [
            {
              "PackageName": "noffz-utp-io-core-lv17-x86",
              "Version": "3.12.0",
              "Relationship": 3
            }
          ]
        ],
        "Conflicts": [
          [
          ]
        ]
      }
    },
    "noffz-utp-io-plugin-noffzgeneric-lv17-x64": {
      "Dependencies": {
        "Depends": [
          [
            {
              "PackageName": "noffz-utp-io-core-lv17-x64",
              "Version": "3.12.0",
              "Relationship": 3
            }
          ]
        ],
        "Conflicts": [
          [
          ]
        ]
      }
    },
    "noffz-utp-io-plugin-noffzgeneric-lv18-x86": {
      "Dependencies": {
        "Depends": [
          [
            {
              "PackageName": "noffz-utp-io-core-lv18-x86",
              "Version": "3.12.0",
              "Relationship": 3
            }
          ]
        ],
        "Conflicts": [
          [
          ]
        ]
      }
    },
    "noffz-utp-io-plugin-noffzgeneric-lv18-x64": {
      "Dependencies": {
        "Depends": [
          [
            {
              "PackageName": "noffz-utp-io-core-lv18-x64",
              "Version": "3.12.0",
              "Relationship": 3
            }
          ]
        ],
        "Conflicts": [
          [
          ]
        ]
      }
    },
	
	
	
	"noffz-utp-io-plugin-noffzscu-lv14-x86": {
      "Dependencies": {
        "Depends": [
          [
            {
              "PackageName": "noffz-utp-io-core-lv14-x86",
              "Version": "3.12.0",
              "Relationship": 3
            }
          ]
        ],
        "Conflicts": [
          [
          ]
        ]
      }
    },
	"noffz-utp-io-plugin-noffzscu-lv15-x86": {
      "Dependencies": {
        "Depends": [
          [
            {
              "PackageName": "noffz-utp-io-core-lv15-x86",
              "Version": "3.12.0",
              "Relationship": 3
            }
          ]
        ],
        "Conflicts": [
          [
          ]
        ]
      }
    },
    "noffz-utp-io-plugin-noffzscu-lv16-x86": {
      "Dependencies": {
        "Depends": [
          [
            {
              "PackageName": "noffz-utp-io-core-lv16-x86",
              "Version": "3.12.0",
              "Relationship": 3
            }
          ]
        ],
        "Conflicts": [
          [
          ]
        ]
      }
    },
    "noffz-utp-io-plugin-noffzscu-lv16-x64": {
      "Dependencies": {
        "Depends": [
          [
            {
              "PackageName": "noffz-utp-io-core-lv16-x64",
              "Version": "3.12.0",
              "Relationship": 3
            }
          ]
        ],
        "Conflicts": [
          [
          ]
        ]
      }
    },
    "noffz-utp-io-plugin-noffzscu-lv17-x86": {
      "Dependencies": {
        "Depends": [
          [
            {
              "PackageName": "noffz-utp-io-core-lv17-x86",
              "Version": "3.12.0",
              "Relationship": 3
            }
          ]
        ],
        "Conflicts": [
          [
          ]
        ]
      }
    },
    "noffz-utp-io-plugin-noffzscu-lv17-x64": {
      "Dependencies": {
        "Depends": [
          [
            {
              "PackageName": "noffz-utp-io-core-lv17-x64",
              "Version": "3.12.0",
              "Relationship": 3
            }
          ]
        ],
        "Conflicts": [
          [
          ]
        ]
      }
    },
    "noffz-utp-io-plugin-noffzscu-lv18-x86": {
      "Dependencies": {
        "Depends": [
          [
            {
              "PackageName": "noffz-utp-io-core-lv18-x86",
              "Version": "3.12.0",
              "Relationship": 3
            }
          ]
        ],
        "Conflicts": [
          [
          ]
        ]
      }
    },
    "noffz-utp-io-plugin-noffzscu-lv18-x64": {
      "Dependencies": {
        "Depends": [
          [
            {
              "PackageName": "noffz-utp-io-core-lv18-x64",
              "Version": "3.12.0",
              "Relationship": 3
            }
          ]
        ],
        "Conflicts": [
          [
          ]
        ]
      }
    },
	
	
	
	"noffz-utp-io-plugin-omronmicroscancodereader-lv14-x86": {
      "Dependencies": {
        "Depends": [
          [
            {
              "PackageName": "noffz-utp-io-core-lv14-x86",
              "Version": "3.12.0",
              "Relationship": 3
            }
          ]
        ],
        "Conflicts": [
          [
          ]
        ]
      }
    },
	"noffz-utp-io-plugin-omronmicroscancodereader-lv15-x86": {
      "Dependencies": {
        "Depends": [
          [
            {
              "PackageName": "noffz-utp-io-core-lv15-x86",
              "Version": "3.12.0",
              "Relationship": 3
            }
          ]
        ],
        "Conflicts": [
          [
          ]
        ]
      }
    },
    "noffz-utp-io-plugin-omronmicroscancodereader-lv16-x86": {
      "Dependencies": {
        "Depends": [
          [
            {
              "PackageName": "noffz-utp-io-core-lv16-x86",
              "Version": "3.12.0",
              "Relationship": 3
            }
          ]
        ],
        "Conflicts": [
          [
          ]
        ]
      }
    },
    "noffz-utp-io-plugin-omronmicroscancodereader-lv16-x64": {
      "Dependencies": {
        "Depends": [
          [
            {
              "PackageName": "noffz-utp-io-core-lv16-x64",
              "Version": "3.12.0",
              "Relationship": 3
            }
          ]
        ],
        "Conflicts": [
          [
          ]
        ]
      }
    },
    "noffz-utp-io-plugin-omronmicroscancodereader-lv17-x86": {
      "Dependencies": {
        "Depends": [
          [
            {
              "PackageName": "noffz-utp-io-core-lv17-x86",
              "Version": "3.12.0",
              "Relationship": 3
            }
          ]
        ],
        "Conflicts": [
          [
          ]
        ]
      }
    },
    "noffz-utp-io-plugin-omronmicroscancodereader-lv17-x64": {
      "Dependencies": {
        "Depends": [
          [
            {
              "PackageName": "noffz-utp-io-core-lv17-x64",
              "Version": "3.12.0",
              "Relationship": 3
            }
          ]
        ],
        "Conflicts": [
          [
          ]
        ]
      }
    },
    "noffz-utp-io-plugin-omronmicroscancodereader-lv18-x86": {
      "Dependencies": {
        "Depends": [
          [
            {
              "PackageName": "noffz-utp-io-core-lv18-x86",
              "Version": "3.12.0",
              "Relationship": 3
            }
          ]
        ],
        "Conflicts": [
          [
          ]
        ]
      }
    },
    "noffz-utp-io-plugin-omronmicroscancodereader-lv18-x64": {
      "Dependencies": {
        "Depends": [
          [
            {
              "PackageName": "noffz-utp-io-core-lv18-x64",
              "Version": "3.12.0",
              "Relationship": 3
            }
          ]
        ],
        "Conflicts": [
          [
          ]
        ]
      }
    },
	
	
	
	"noffz-utp-io-plugin-pickeringpipx-lv14-x86": {
      "Dependencies": {
        "Depends": [
          [
            {
              "PackageName": "noffz-utp-io-core-lv14-x86",
              "Version": "3.12.0",
              "Relationship": 3
            }
          ]
        ],
        "Conflicts": [
          [
          ]
        ]
      }
    },
	"noffz-utp-io-plugin-pickeringpipx-lv15-x86": {
      "Dependencies": {
        "Depends": [
          [
            {
              "PackageName": "noffz-utp-io-core-lv15-x86",
              "Version": "3.12.0",
              "Relationship": 3
            }
          ]
        ],
        "Conflicts": [
          [
          ]
        ]
      }
    },
    "noffz-utp-io-plugin-pickeringpipx-lv16-x86": {
      "Dependencies": {
        "Depends": [
          [
            {
              "PackageName": "noffz-utp-io-core-lv16-x86",
              "Version": "3.12.0",
              "Relationship": 3
            }
          ]
        ],
        "Conflicts": [
          [
          ]
        ]
      }
    },
    "noffz-utp-io-plugin-pickeringpipx-lv16-x64": {
      "Dependencies": {
        "Depends": [
          [
            {
              "PackageName": "noffz-utp-io-core-lv16-x64",
              "Version": "3.12.0",
              "Relationship": 3
            }
          ]
        ],
        "Conflicts": [
          [
          ]
        ]
      }
    },
    "noffz-utp-io-plugin-pickeringpipx-lv17-x86": {
      "Dependencies": {
        "Depends": [
          [
            {
              "PackageName": "noffz-utp-io-core-lv17-x86",
              "Version": "3.12.0",
              "Relationship": 3
            }
          ]
        ],
        "Conflicts": [
          [
          ]
        ]
      }
    },
    "noffz-utp-io-plugin-pickeringpipx-lv17-x64": {
      "Dependencies": {
        "Depends": [
          [
            {
              "PackageName": "noffz-utp-io-core-lv17-x64",
              "Version": "3.12.0",
              "Relationship": 3
            }
          ]
        ],
        "Conflicts": [
          [
          ]
        ]
      }
    },
    "noffz-utp-io-plugin-pickeringpipx-lv18-x86": {
      "Dependencies": {
        "Depends": [
          [
            {
              "PackageName": "noffz-utp-io-core-lv18-x86",
              "Version": "3.12.0",
              "Relationship": 3
            }
          ]
        ],
        "Conflicts": [
          [
          ]
        ]
      }
    },
    "noffz-utp-io-plugin-pickeringpipx-lv18-x64": {
      "Dependencies": {
        "Depends": [
          [
            {
              "PackageName": "noffz-utp-io-core-lv18-x64",
              "Version": "3.12.0",
              "Relationship": 3
            }
          ]
        ],
        "Conflicts": [
          [
          ]
        ]
      }
    },

	
	
	"noffz-utp-io-plugin-rohdeandschwarzdcpsu-lv14-x86": {
      "Dependencies": {
        "Depends": [
          [
            {
              "PackageName": "noffz-utp-io-core-lv14-x86",
              "Version": "3.12.0",
              "Relationship": 3
            }
          ]
        ],
        "Conflicts": [
          [
          ]
        ]
      }
    },
	"noffz-utp-io-plugin-rohdeandschwarzdcpsu-lv15-x86": {
      "Dependencies": {
        "Depends": [
          [
            {
              "PackageName": "noffz-utp-io-core-lv15-x86",
              "Version": "3.12.0",
              "Relationship": 3
            }
          ]
        ],
        "Conflicts": [
          [
          ]
        ]
      }
    },
    "noffz-utp-io-plugin-rohdeandschwarzdcpsu-lv16-x86": {
      "Dependencies": {
        "Depends": [
          [
            {
              "PackageName": "noffz-utp-io-core-lv16-x86",
              "Version": "3.12.0",
              "Relationship": 3
            }
          ]
        ],
        "Conflicts": [
          [
          ]
        ]
      }
    },
    "noffz-utp-io-plugin-rohdeandschwarzdcpsu-lv16-x64": {
      "Dependencies": {
        "Depends": [
          [
            {
              "PackageName": "noffz-utp-io-core-lv16-x64",
              "Version": "3.12.0",
              "Relationship": 3
            }
          ]
        ],
        "Conflicts": [
          [
          ]
        ]
      }
    },
    "noffz-utp-io-plugin-rohdeandschwarzdcpsu-lv17-x86": {
      "Dependencies": {
        "Depends": [
          [
            {
              "PackageName": "noffz-utp-io-core-lv17-x86",
              "Version": "3.12.0",
              "Relationship": 3
            }
          ]
        ],
        "Conflicts": [
          [
          ]
        ]
      }
    },
    "noffz-utp-io-plugin-rohdeandschwarzdcpsu-lv17-x64": {
      "Dependencies": {
        "Depends": [
          [
            {
              "PackageName": "noffz-utp-io-core-lv17-x64",
              "Version": "3.12.0",
              "Relationship": 3
            }
          ]
        ],
        "Conflicts": [
          [
          ]
        ]
      }
    },
    "noffz-utp-io-plugin-rohdeandschwarzdcpsu-lv18-x86": {
      "Dependencies": {
        "Depends": [
          [
            {
              "PackageName": "noffz-utp-io-core-lv18-x86",
              "Version": "3.12.0",
              "Relationship": 3
            }
          ]
        ],
        "Conflicts": [
          [
          ]
        ]
      }
    },
    "noffz-utp-io-plugin-rohdeandschwarzdcpsu-lv18-x64": {
      "Dependencies": {
        "Depends": [
          [
            {
              "PackageName": "noffz-utp-io-core-lv18-x64",
              "Version": "3.12.0",
              "Relationship": 3
            }
          ]
        ],
        "Conflicts": [
          [
          ]
        ]
      }
    },
	
	
	
	"noffz-utp-io-plugin-siemenssimaticplc-lv14-x86": {
      "Dependencies": {
        "Depends": [
          [
            {
              "PackageName": "noffz-utp-io-core-lv14-x86",
              "Version": "3.12.0",
              "Relationship": 3
            }
          ]
        ],
        "Conflicts": [
          [
          ]
        ]
      }
    },
	"noffz-utp-io-plugin-siemenssimaticplc-lv15-x86": {
      "Dependencies": {
        "Depends": [
          [
            {
              "PackageName": "noffz-utp-io-core-lv15-x86",
              "Version": "3.12.0",
              "Relationship": 3
            }
          ]
        ],
        "Conflicts": [
          [
          ]
        ]
      }
    },
    "noffz-utp-io-plugin-siemenssimaticplc-lv16-x86": {
      "Dependencies": {
        "Depends": [
          [
            {
              "PackageName": "noffz-utp-io-core-lv16-x86",
              "Version": "3.12.0",
              "Relationship": 3
            }
          ]
        ],
        "Conflicts": [
          [
          ]
        ]
      }
    },
    "noffz-utp-io-plugin-siemenssimaticplc-lv16-x64": {
      "Dependencies": {
        "Depends": [
          [
            {
              "PackageName": "noffz-utp-io-core-lv16-x64",
              "Version": "3.12.0",
              "Relationship": 3
            }
          ]
        ],
        "Conflicts": [
          [
          ]
        ]
      }
    },
    "noffz-utp-io-plugin-siemenssimaticplc-lv17-x86": {
      "Dependencies": {
        "Depends": [
          [
            {
              "PackageName": "noffz-utp-io-core-lv17-x86",
              "Version": "3.12.0",
              "Relationship": 3
            }
          ]
        ],
        "Conflicts": [
          [
          ]
        ]
      }
    },
    "noffz-utp-io-plugin-siemenssimaticplc-lv17-x64": {
      "Dependencies": {
        "Depends": [
          [
            {
              "PackageName": "noffz-utp-io-core-lv17-x64",
              "Version": "3.12.0",
              "Relationship": 3
            }
          ]
        ],
        "Conflicts": [
          [
          ]
        ]
      }
    },
    "noffz-utp-io-plugin-siemenssimaticplc-lv18-x86": {
      "Dependencies": {
        "Depends": [
          [
            {
              "PackageName": "noffz-utp-io-core-lv18-x86",
              "Version": "3.12.0",
              "Relationship": 3
            }
          ]
        ],
        "Conflicts": [
          [
          ]
        ]
      }
    },
    "noffz-utp-io-plugin-siemenssimaticplc-lv18-x64": {
      "Dependencies": {
        "Depends": [
          [
            {
              "PackageName": "noffz-utp-io-core-lv18-x64",
              "Version": "3.12.0",
              "Relationship": 3
            }
          ]
        ],
        "Conflicts": [
          [
          ]
        ]
      }
    },
	
	
	
	"noffz-utp-io-plugin-tdklambdadcpsu-lv14-x86": {
      "Dependencies": {
        "Depends": [
          [
            {
              "PackageName": "noffz-utp-io-core-lv14-x86",
              "Version": "3.12.0",
              "Relationship": 3
            }
          ]
        ],
        "Conflicts": [
          [
          ]
        ]
      }
    },
	"noffz-utp-io-plugin-tdklambdadcpsu-lv15-x86": {
      "Dependencies": {
        "Depends": [
          [
            {
              "PackageName": "noffz-utp-io-core-lv15-x86",
              "Version": "3.12.0",
              "Relationship": 3
            }
          ]
        ],
        "Conflicts": [
          [
          ]
        ]
      }
    },
    "noffz-utp-io-plugin-tdklambdadcpsu-lv16-x86": {
      "Dependencies": {
        "Depends": [
          [
            {
              "PackageName": "noffz-utp-io-core-lv16-x86",
              "Version": "3.12.0",
              "Relationship": 3
            }
          ]
        ],
        "Conflicts": [
          [
          ]
        ]
      }
    },
    "noffz-utp-io-plugin-tdklambdadcpsu-lv16-x64": {
      "Dependencies": {
        "Depends": [
          [
            {
              "PackageName": "noffz-utp-io-core-lv16-x64",
              "Version": "3.12.0",
              "Relationship": 3
            }
          ]
        ],
        "Conflicts": [
          [
          ]
        ]
      }
    },
    "noffz-utp-io-plugin-tdklambdadcpsu-lv17-x86": {
      "Dependencies": {
        "Depends": [
          [
            {
              "PackageName": "noffz-utp-io-core-lv17-x86",
              "Version": "3.12.0",
              "Relationship": 3
            }
          ]
        ],
        "Conflicts": [
          [
          ]
        ]
      }
    },
    "noffz-utp-io-plugin-tdklambdadcpsu-lv17-x64": {
      "Dependencies": {
        "Depends": [
          [
            {
              "PackageName": "noffz-utp-io-core-lv17-x64",
              "Version": "3.12.0",
              "Relationship": 3
            }
          ]
        ],
        "Conflicts": [
          [
          ]
        ]
      }
    },
    "noffz-utp-io-plugin-tdklambdadcpsu-lv18-x86": {
      "Dependencies": {
        "Depends": [
          [
            {
              "PackageName": "noffz-utp-io-core-lv18-x86",
              "Version": "3.12.0",
              "Relationship": 3
            }
          ]
        ],
        "Conflicts": [
          [
          ]
        ]
      }
    },
    "noffz-utp-io-plugin-tdklambdadcpsu-lv18-x64": {
      "Dependencies": {
        "Depends": [
          [
            {
              "PackageName": "noffz-utp-io-core-lv18-x64",
              "Version": "3.12.0",
              "Relationship": 3
            }
          ]
        ],
        "Conflicts": [
          [
          ]
        ]
      }
    },
	
	
	
		"noffz-utp-io-plugin-voetschclimaticchamber-lv14-x86": {
      "Dependencies": {
        "Depends": [
          [
            {
              "PackageName": "noffz-utp-io-core-lv14-x86",
              "Version": "3.12.0",
              "Relationship": 3
            }
          ]
        ],
        "Conflicts": [
          [
          ]
        ]
      }
    },
	"noffz-utp-io-plugin-voetschclimaticchamber-lv15-x86": {
      "Dependencies": {
        "Depends": [
          [
            {
              "PackageName": "noffz-utp-io-core-lv15-x86",
              "Version": "3.12.0",
              "Relationship": 3
            }
          ]
        ],
        "Conflicts": [
          [
          ]
        ]
      }
    },
    "noffz-utp-io-plugin-voetschclimaticchamber-lv16-x86": {
      "Dependencies": {
        "Depends": [
          [
            {
              "PackageName": "noffz-utp-io-core-lv16-x86",
              "Version": "3.12.0",
              "Relationship": 3
            }
          ]
        ],
        "Conflicts": [
          [
          ]
        ]
      }
    },
    "noffz-utp-io-plugin-voetschclimaticchamber-lv16-x64": {
      "Dependencies": {
        "Depends": [
          [
            {
              "PackageName": "noffz-utp-io-core-lv16-x64",
              "Version": "3.12.0",
              "Relationship": 3
            }
          ]
        ],
        "Conflicts": [
          [
          ]
        ]
      }
    },
    "noffz-utp-io-plugin-voetschclimaticchamber-lv17-x86": {
      "Dependencies": {
        "Depends": [
          [
            {
              "PackageName": "noffz-utp-io-core-lv17-x86",
              "Version": "3.12.0",
              "Relationship": 3
            }
          ]
        ],
        "Conflicts": [
          [
          ]
        ]
      }
    },
    "noffz-utp-io-plugin-voetschclimaticchamber-lv17-x64": {
      "Dependencies": {
        "Depends": [
          [
            {
              "PackageName": "noffz-utp-io-core-lv17-x64",
              "Version": "3.12.0",
              "Relationship": 3
            }
          ]
        ],
        "Conflicts": [
          [
          ]
        ]
      }
    },
    "noffz-utp-io-plugin-voetschclimaticchamber-lv18-x86": {
      "Dependencies": {
        "Depends": [
          [
            {
              "PackageName": "noffz-utp-io-core-lv18-x86",
              "Version": "3.12.0",
              "Relationship": 3
            }
          ]
        ],
        "Conflicts": [
          [
          ]
        ]
      }
    },
    "noffz-utp-io-plugin-voetschclimaticchamber-lv18-x64": {
      "Dependencies": {
        "Depends": [
          [
            {
              "PackageName": "noffz-utp-io-core-lv18-x64",
              "Version": "3.12.0",
              "Relationship": 3
            }
          ]
        ],
        "Conflicts": [
          [
          ]
        ]
      }
    }

  }
}